{
    "url": "https://hoy.lodiesa.click",                        // required
    "name": "PingPong",                      // required
    "iconUrl": "https://play-lh.googleusercontent.com/Zs0-SVFd7FHABCT6buDhAVmOZHlIJS8Z37LMmWghcJV9N4ryZfpI0dZa0jzejcJ3cQ=w240-h480-rw",               // required
}